Chapter 6 Stacked Plots | ArabBarometRv2 Graphing Guide
…
6.1 Create a Single Graph

6.1.1 Create a Summary

As usual, the first step to creating a stacked bar graph is to summarize the data you want to display. To do this you use the calculate_comp_smry_stacked() function. This function requires two arguments: (1) an Arab Barometer data frame, and (2) the name of the variable you want to graph.

For this example, we’ll use the first survey of wave six and question Q2061A.

calculate_comp_smry_stacked(
  ab_data = survey1,   # Data Frame
  ab_var = "Q2061A"  # Variable Name
  )

#> # A tibble: 24 × 3
#> # Groups:   Country [3]
#>    Country Q2061A                     Percent
#>    <chr>   <dbl+lbl>                    <dbl>
#>  1 Algeria   1 [Economic situation]        24
#>  2 Algeria   2 [Corruption]                 6
#>  3 Algeria   6 [Instability]                3
#>  4 Algeria   7 [Foreign interference]       1
#>  5 Algeria  12 [Public services]            1
#>  6 Algeria  15 [COVID-19]                  44
#>  7 Algeria  16 [Other]                      3
#>  8 Algeria 666 [Don't know/Refuse]          2
#>  9 Lebanon   1 [Economic situation]        63
#> 10 Lebanon   2 [Corruption]                17
#> # ℹ 14 more rows
…
summary_list <- map(
  variables_2_plot,     # List of variables
  calculate_comp_smry_stacked, # Function to map onto
  ab_data = survey1         # Constant parameter
  )

Unlike the list produced produced when we created many summaries for single country overall plots, this list of summaries is not named. The list has three elements (one for each variable) called "1", "2", and "3". While not strictly necessary, it is useful to provide names for referencing later. Luckily, if you saved the names of the variables as a vector, you can set that vector as the names of the elements in the summary list6.

names(summary_list) <- variables_2_plot

Now, you can look at each variable’s summary by referencing the variable name.

summary_list$Q2061A

#> # A tibble: 24 × 3
#> # Groups:   Country [3]
#>    Country Q2061A                     Percent
#>    <chr>   <dbl+lbl>                    <dbl>
#>  1 Algeria   1 [Economic situation]        24
#>  2 Algeria   2 [Corruption]                 6
#>  3 Algeria   6 [Instability]                3
#>  4 Algeria   7 [Foreign interference]       1
#>  5 Algeria  12 [Public services]            1
#>  6 Algeria  15 [COVID-19]                  44
#>  7 Algeria  16 [Other]                      3
#>  8 Algeria 666 [Don't know/Refuse]          2
#>  9 Lebanon   1 [Economic situation]        63
#> 10 Lebanon   2 [Corruption]                17
#> # ℹ 14 more rows
…
